# 3ds Max Wavefront OBJ Exporter v0.97b - (c)2007 guruware
# File Created: 18.12.2016 12:41:03

#
# object Sign_TrafficLights
#

v  -321.3618 -88.0534 23.8401
v  -321.3618 -88.0534 -23.8401
v  321.3618 -88.0534 -23.8401
v  321.3618 -88.0534 23.8401
v  -321.3618 88.0534 23.8401
v  -321.3618 88.0534 -23.8401
v  321.3618 88.0534 -23.8401
v  321.3618 88.0534 23.8401
v  -296.3605 17.9169 -23.5999
v  -296.3605 194.0237 -23.5999
v  -296.3605 194.0237 -44.0715
v  -296.3605 17.9169 -44.0715
v  -258.6743 17.9169 -44.0715
v  -258.6743 17.9169 -23.5999
v  -258.6743 194.0237 -23.5999
v  -258.6743 194.0237 -44.0715
v  256.2449 17.9169 -23.5999
v  256.2449 194.0237 -23.5999
v  256.2449 194.0237 -44.0715
v  256.2449 17.9169 -44.0715
v  293.9312 17.9169 -44.0715
v  293.9312 17.9169 -23.5999
v  293.9312 194.0237 -23.5999
v  293.9312 194.0237 -44.0715
# 24 vertices

vn 0.0000 -1.0000 -0.0000
vn -1.0000 0.0000 -0.0000
vn 0.0000 1.0000 -0.0000
vn 1.0000 0.0000 -0.0000
vn 0.0000 0.0000 1.0000
vn 0.0000 0.0000 -1.0000
# 6 vertex normals

vt 0.5482 0.9463 0.0000
vt 0.5482 0.9566 0.0000
vt 0.4095 0.9566 0.0000
vt 0.4095 0.9463 0.0000
vt 0.1728 0.9747 0.0000
vt 0.2108 0.9747 0.0000
vt 0.2108 0.9850 0.0000
vt 0.1728 0.9850 0.0000
vt 0.6015 0.9191 0.0000
vt 0.7401 0.9191 0.0000
vt 0.7401 0.9294 0.0000
vt 0.6015 0.9294 0.0000
vt 0.0917 0.9840 0.0000
vt 0.0917 0.9737 0.0000
vt 0.1297 0.9737 0.0000
vt 0.1297 0.9840 0.0000
vt 0.5889 0.8829 0.0000
vt 0.4503 0.8829 0.0000
vt 0.4503 0.8450 0.0000
vt 0.5889 0.8450 0.0000
vt 0.5315 0.9296 0.0000
vt 0.3928 0.9296 0.0000
vt 0.3928 0.8916 0.0000
vt 0.5315 0.8916 0.0000
vt 0.2003 0.9860 0.0000
vt 0.2003 0.9945 0.0000
vt 0.1845 0.9945 0.0000
vt 0.1845 0.9860 0.0000
vt 0.2114 0.9847 0.0000
vt 0.1731 0.9847 0.0000
vt 0.1731 0.9750 0.0000
vt 0.2114 0.9750 0.0000
vt 0.1730 0.9747 0.0000
vt 0.1730 0.9850 0.0000
# 34 texture coords

g Sign_TrafficLights
s 1
f 1/1/1 2/2/1 3/3/1 4/4/1 
s 2
f 1/5/2 5/6/2 6/7/2 2/8/2 
s 1
f 7/9/3 6/10/3 5/11/3 8/12/3 
s 2
f 4/13/4 3/14/4 7/15/4 8/16/4 
s 4
f 1/17/5 4/18/5 8/19/5 5/20/5 
f 3/21/6 2/22/6 6/23/6 7/24/6 
s 2
f 9/5/2 10/6/2 11/7/2 12/8/2 
s off
f 9/25/1 12/26/1 13/27/1 14/28/1 
f 10/29/5 9/30/5 14/31/5 15/32/5 
f 12/33/6 11/6/6 16/7/6 13/34/6 
f 16/7/4 15/6/4 14/5/4 13/8/4 
s 2
f 17/5/2 18/6/2 19/7/2 20/8/2 
s off
f 17/25/1 20/26/1 21/27/1 22/28/1 
f 18/29/5 17/30/5 22/31/5 23/32/5 
f 20/33/6 19/6/6 24/7/6 21/34/6 
f 24/7/4 23/6/4 22/5/4 21/8/4 
# 16 polygons

